%YAML 1.1
%TAG !u! tag:unity3d.com,2011:
--- !u!114 &11400000
MonoBehaviour:
  m_ObjectHideFlags: 0
  m_PrefabParentObject: {fileID: 0}
  m_PrefabInternal: {fileID: 0}
  m_GameObject: {fileID: 0}
  m_Enabled: 1
  m_EditorHideFlags: 0
  m_Script: {fileID: 11500000, guid: f0188188c253e0c4bb9b46e19fa7312e, type: 3}
  m_Name: FEyebrow4
  m_EditorClassIdentifier: 
  recipeType: Wardrobe
  DisplayValue: Eyebrow 4
  compatibleRaces:
  - HumanFemale
  - HumanFemaleDCS
  wardrobeRecipeThumbs:
  - race: HumanFemale
    filename: 
    thumb: {fileID: 0}
  - race: HumanFemaleDCS
    filename: 
    thumb: {fileID: 0}
  wardrobeSlot: Eyebrows
  Hides:
  - F_High poly Eyebrows
  suppressWardrobeSlots: []
  activeWardrobeSet: []
  recipeString: '{"version":2,"packedSlotDataList":[],"slotsV2":[{"id":"","scale":1,"copyIdx":-1,"overlays":[]},{"id":"","scale":1,"copyIdx":-1,"overlays":[]},{"id":"F_High
    poly head","scale":100,"copyIdx":-1,"overlays":[{"id":"F_face 4 eyebrows PBR","colorIdx":0,"rect":[0,0,0,0]}]}],"colors":[],"fColors":[{"name":"Hair","colors":[255,255,255,255,0,0,0,0,255,255,255,255,0,0,0,0,255,255,255,255,0,0,0,0]}],"sharedColorCount":1,"race":"","packedDna":[]}'
  replaces: Nothing
