%YAML 1.1
%TAG !u! tag:unity3d.com,2011:
--- !u!114 &11400000
MonoBehaviour:
  m_ObjectHideFlags: 0
  m_PrefabParentObject: {fileID: 0}
  m_PrefabInternal: {fileID: 0}
  m_GameObject: {fileID: 0}
  m_Enabled: 1
  m_EditorHideFlags: 0
  m_Script: {fileID: 11500000, guid: f0188188c253e0c4bb9b46e19fa7312e, type: 3}
  m_Name: FFace9
  m_EditorClassIdentifier: 
  recipeType: Wardrobe
  DisplayValue: Face 9  - Orc
  compatibleRaces:
  - HumanFemale
  - HumanFemaleDCS
  wardrobeRecipeThumbs:
  - race: HumanFemale
    filename: 
    thumb: {fileID: 0}
  - race: HumanFemaleDCS
    filename: 
    thumb: {fileID: 0}
  wardrobeSlot: Face
  Hides: []
  suppressWardrobeSlots: []
  activeWardrobeSet: []
  recipeString: '{"version":2,"packedSlotDataList":[],"slotsV2":[{"id":"F_High poly
    head","scale":100,"copyIdx":-1,"overlays":[{"id":"F_Face 9 Orc PBR","colorIdx":0,"rect":[0,0,0,0]}]},{"id":"F_Orc
    Fangs","scale":100,"copyIdx":-1,"overlays":[{"id":"Orc Fang Overlay PBR","colorIdx":1,"rect":[0,0,0,0]}]}],"colors":[],"fColors":[{"name":"Skin","colors":[255,255,255,255,0,0,0,0,255,255,255,255,0,0,0,0,255,255,255,255,0,0,0,0]},{"name":"Skin
    Accent","colors":[255,255,255,255,0,0,0,0,255,255,255,255,0,0,0,0,255,255,255,255,0,0,0,0]}],"sharedColorCount":2,"race":"","packedDna":[]}'
  replaces: Nothing
