%YAML 1.1
%TAG !u! tag:unity3d.com,2011:
--- !u!114 &11400000
MonoBehaviour:
  m_ObjectHideFlags: 0
  m_PrefabParentObject: {fileID: 0}
  m_PrefabInternal: {fileID: 0}
  m_GameObject: {fileID: 0}
  m_Enabled: 1
  m_EditorHideFlags: 0
  m_Script: {fileID: 11500000, guid: f0188188c253e0c4bb9b46e19fa7312e, type: 3}
  m_Name: HighElfBootsF
  m_EditorClassIdentifier: 
  recipeType: Wardrobe
  DisplayValue: Elven Boots
  compatibleRaces:
  - HumanFemale
  - HumanFemaleDCS
  wardrobeRecipeThumbs:
  - race: HumanFemale
    filename: 
    thumb: {fileID: 0}
  - race: HumanFemaleDCS
    filename: 
    thumb: {fileID: 0}
  wardrobeSlot: Feet
  Hides:
  - FemaleFeet
  suppressWardrobeSlots: []
  activeWardrobeSet: []
  recipeString: '{"version":3,"packedSlotDataList":[],"slotsV2":[],"slotsV3":[{"id":"","scale":1,"copyIdx":-1,"overlays":[]},{"id":"","scale":1,"copyIdx":-1,"overlays":[]},{"id":"F_highelfarmor_Boots","scale":100,"copyIdx":-1,"overlays":[{"id":"High
    Elf Boots","colorIdx":0,"rect":[0,0,0,0],"data":[]},{"id":"High Elf Boots col","colorIdx":1,"rect":[0,0,0,0],"data":[]}]}],"colors":[],"fColors":[{"name":"Shoes","colors":[255,255,255,255,0,0,0,0,255,255,255,255,0,0,0,0,255,255,255,255,0,0,0,0]},{"name":"Shoes
    Accent","colors":[255,255,255,255,0,0,0,0,255,255,255,255,0,0,0,0,255,255,255,255,0,0,0,0]}],"sharedColorCount":2,"race":"","packedDna":[]}'
  replaces: Nothing
