%YAML 1.1
%TAG !u! tag:unity3d.com,2011:
--- !u!114 &11400000
MonoBehaviour:
  m_ObjectHideFlags: 0
  m_PrefabParentObject: {fileID: 0}
  m_PrefabInternal: {fileID: 0}
  m_GameObject: {fileID: 0}
  m_Enabled: 1
  m_EditorHideFlags: 0
  m_Script: {fileID: 11500000, guid: f0188188c253e0c4bb9b46e19fa7312e, type: 3}
  m_Name: MHair3
  m_EditorClassIdentifier: 
  recipeType: Wardrobe
  DisplayValue: Hair 3
  compatibleRaces:
  - HumanMale
  - HumanMaleDCS
  wardrobeRecipeThumbs:
  - race: HumanMale
    filename: 
    thumb: {fileID: 0}
  - race: HumanMaleDCS
    filename: 
    thumb: {fileID: 0}
  wardrobeSlot: Hair
  Hides: []
  suppressWardrobeSlots: []
  activeWardrobeSet: []
  recipeString: '{"version":2,"packedSlotDataList":[],"slotsV2":[{"id":"","scale":1,"copyIdx":-1,"overlays":[]},{"id":"","scale":1,"copyIdx":-1,"overlays":[]},{"id":"","scale":1,"copyIdx":-1,"overlays":[]},{"id":"M_Hair
    3","scale":100,"copyIdx":-1,"overlays":[{"id":"Hair1","colorIdx":0,"rect":[0,0,0,0]}]},{"id":"M_hair
    3 band","scale":100,"copyIdx":-1,"overlays":[{"id":"F_Hair 5 BAND","colorIdx":1,"rect":[0,0,0,0]}]}],"colors":[],"fColors":[{"name":"Hair","colors":[255,255,255,255,0,0,0,0,255,255,255,255,0,0,0,0,255,255,255,255,0,0,0,0]},{"name":"Hair
    Accent","colors":[255,255,255,255,0,0,0,0,255,255,255,255,0,0,0,0,255,255,255,255,0,0,0,0]}],"sharedColorCount":2,"race":"","packedDna":[]}'
  replaces: Nothing
